***************************************************************************
Options:  -O2 -fomit-frame-pointer -falign-functions=16
Settings: SYSCLK=168, ACR=0x705 (5 wait states)
***************************************************************************

*** ChibiOS/RT test suite
***
*** Kernel:       2.4.3
*** Compiled:     Dec 23 2012 - 12:04:24
*** Compiler:     GCC 4.6.2 20121016 (release) [ARM/embedded-4_6-branch revision 192487]
*** Architecture: ARMv7-ME
*** Core Variant: Cortex-M4
*** Port Info:    Advanced kernel mode
*** Platform:     STM32F4 High Performance & DSP
*** Test Board:   ST STM32F4-Discovery

----------------------------------------------------------------------------
--- Test Case 1.1 (Threads, enqueuing test #1)
--- Result: SUCCESS
----------------------------------------------------------------------------
--- Test Case 1.2 (Threads, enqueuing test #2)
--- Result: SUCCESS
----------------------------------------------------------------------------
--- Test Case 1.3 (Threads, priority change)
--- Result: SUCCESS
----------------------------------------------------------------------------
--- Test Case 1.4 (Threads, delays)
--- Result: SUCCESS
----------------------------------------------------------------------------
--- Test Case 2.1 (Semaphores, enqueuing)
--- Result: SUCCESS
----------------------------------------------------------------------------
--- Test Case 2.2 (Semaphores, timeout)
--- Result: SUCCESS
----------------------------------------------------------------------------
--- Test Case 2.3 (Semaphores, atomic signal-wait)
--- Result: SUCCESS
----------------------------------------------------------------------------
--- Test Case 2.4 (Binary Semaphores, functionality)
--- Result: SUCCESS
----------------------------------------------------------------------------
--- Test Case 3.1 (Mutexes, priority enqueuing test)
--- Result: SUCCESS
----------------------------------------------------------------------------
--- Test Case 3.2 (Mutexes, priority inheritance, simple case)
--- Result: SUCCESS
----------------------------------------------------------------------------
--- Test Case 3.3 (Mutexes, priority inheritance, complex case)
--- Result: SUCCESS
----------------------------------------------------------------------------
--- Test Case 3.4 (Mutexes, priority return)
--- Result: SUCCESS
----------------------------------------------------------------------------
--- Test Case 3.5 (Mutexes, status)
--- Result: SUCCESS
----------------------------------------------------------------------------
--- Test Case 3.6 (CondVar, signal test)
--- Result: SUCCESS
----------------------------------------------------------------------------
--- Test Case 3.7 (CondVar, broadcast test)
--- Result: SUCCESS
----------------------------------------------------------------------------
--- Test Case 3.8 (CondVar, boost test)
--- Result: SUCCESS
----------------------------------------------------------------------------
--- Test Case 4.1 (Messages, loop)
--- Result: SUCCESS
----------------------------------------------------------------------------
--- Test Case 5.1 (Mailboxes, queuing and timeouts)
--- Result: SUCCESS
----------------------------------------------------------------------------
--- Test Case 6.1 (Events, registration and dispatch)
--- Result: SUCCESS
----------------------------------------------------------------------------
--- Test Case 6.2 (Events, wait and broadcast)
--- Result: SUCCESS
----------------------------------------------------------------------------
--- Test Case 6.3 (Events, timeouts)
--- Result: SUCCESS
----------------------------------------------------------------------------
--- Test Case 7.1 (Heap, allocation and fragmentation test)
--- Result: SUCCESS
----------------------------------------------------------------------------
--- Test Case 8.1 (Memory Pools, queue/dequeue)
--- Result: SUCCESS
----------------------------------------------------------------------------
--- Test Case 9.1 (Dynamic APIs, threads creation from heap)
--- Result: SUCCESS
----------------------------------------------------------------------------
--- Test Case 9.2 (Dynamic APIs, threads creation from memory pool)
--- Result: SUCCESS
----------------------------------------------------------------------------
--- Test Case 9.3 (Dynamic APIs, registry and references)
--- Result: SUCCESS
----------------------------------------------------------------------------
--- Test Case 10.1 (Queues, input queues)
--- Result: SUCCESS
----------------------------------------------------------------------------
--- Test Case 10.2 (Queues, output queues)
--- Result: SUCCESS
----------------------------------------------------------------------------
--- Test Case 11.1 (Benchmark, messages #1)
--- Score : 749359 msgs/S, 1498718 ctxswc/S
--- Result: SUCCESS
----------------------------------------------------------------------------
--- Test Case 11.2 (Benchmark, messages #2)
--- Score : 617119 msgs/S, 1234238 ctxswc/S
--- Result: SUCCESS
----------------------------------------------------------------------------
--- Test Case 11.3 (Benchmark, messages #3)
--- Score : 617119 msgs/S, 1234238 ctxswc/S
--- Result: SUCCESS
----------------------------------------------------------------------------
--- Test Case 11.4 (Benchmark, context switch)
--- Score : 2491424 ctxswc/S
--- Result: SUCCESS
----------------------------------------------------------------------------
--- Test Case 11.5 (Benchmark, threads, full cycle)
--- Score : 448821 threads/S
--- Result: SUCCESS
----------------------------------------------------------------------------
--- Test Case 11.6 (Benchmark, threads, create only)
--- Score : 631049 threads/S
--- Result: SUCCESS
----------------------------------------------------------------------------
--- Test Case 11.7 (Benchmark, mass reschedule, 5 threads)
--- Score : 192450 reschedules/S, 1154700 ctxswc/S
--- Result: SUCCESS
----------------------------------------------------------------------------
--- Test Case 11.8 (Benchmark, round robin context switching)
--- Score : 1367460 ctxswc/S
--- Result: SUCCESS
----------------------------------------------------------------------------
--- Test Case 11.9 (Benchmark, I/O Queues throughput)
--- Score : 1804932 bytes/S
--- Result: SUCCESS
----------------------------------------------------------------------------
--- Test Case 11.10 (Benchmark, virtual timers set/reset)
--- Score : 2180000 timers/S
--- Result: SUCCESS
----------------------------------------------------------------------------
--- Test Case 11.11 (Benchmark, semaphores wait/signal)
--- Score : 2685732 wait+signal/S
--- Result: SUCCESS
----------------------------------------------------------------------------
--- Test Case 11.12 (Benchmark, mutexes lock/unlock)
--- Score : 1886044 lock+unlock/S
--- Result: SUCCESS
----------------------------------------------------------------------------
--- Test Case 11.13 (Benchmark, RAM footprint)
--- System: 408 bytes
--- Thread: 72 bytes
--- Timer : 20 bytes
--- Semaph: 12 bytes
--- EventS: 4 bytes
--- EventL: 12 bytes
--- Mutex : 16 bytes
--- CondV.: 8 bytes
--- Queue : 32 bytes
--- MailB.: 40 bytes
--- Result: SUCCESS
----------------------------------------------------------------------------

Final result: SUCCESS
